000 (10779727.000.000) 01/18 22:44:22 Job submitted from host: <188.185.72.155:9618?addrs=188.185.72.155-9618&alias=bigbird08.cern.ch&noUDP&sock=schedd_1896_13a7>
...
040 (10779727.000.000) 01/18 22:45:23 Started transferring input files
	Transferring to host: <188.184.195.68:9618?addrs=188.184.195.68-9618+[2001-1458-301-72--100-393]-9618&alias=b7g47n9788.cern.ch&noUDP&sock=slot1_1_8724_98dc_58146>
...
040 (10779727.000.000) 01/18 22:45:23 Finished transferring input files
...
001 (10779727.000.000) 01/18 22:45:24 Job executing on host: <188.184.195.68:9618?addrs=188.184.195.68-9618+[2001-1458-301-72--100-393]-9618&alias=b7g47n9788.cern.ch&noUDP&sock=startd_7782_6219>
...
006 (10779727.000.000) 01/18 22:45:33 Image size of job updated: 89352
	27  -  MemoryUsage of job (MB)
	27436  -  ResidentSetSize of job (KB)
...
006 (10779727.000.000) 01/18 22:50:34 Image size of job updated: 2154508
	279  -  MemoryUsage of job (MB)
	285456  -  ResidentSetSize of job (KB)
...
006 (10779727.000.000) 01/18 22:55:34 Image size of job updated: 8336960
	339  -  MemoryUsage of job (MB)
	346168  -  ResidentSetSize of job (KB)
...
040 (10779727.000.000) 01/18 22:55:34 Started transferring output files
...
040 (10779727.000.000) 01/18 22:55:34 Finished transferring output files
...
005 (10779727.000.000) 01/18 22:55:34 Job terminated.
	(1) Normal termination (return value 0)
		Usr 0 00:10:07, Sys 0 00:00:36  -  Run Remote Usage
		Usr 0 00:00:00, Sys 0 00:00:00  -  Run Local Usage
		Usr 0 00:10:07, Sys 0 00:00:36  -  Total Remote Usage
		Usr 0 00:00:00, Sys 0 00:00:00  -  Total Local Usage
	498418  -  Run Bytes Sent By Job
	237  -  Run Bytes Received By Job
	498418  -  Total Bytes Sent By Job
	237  -  Total Bytes Received By Job
	Partitionable Resources :    Usage  Request Allocated Assigned
	   Cpus                 :                 2         2 
	   Disk (KB)            :      507        1    171476 
	   Gpus (Average)       :                 1         1 "CUDA0"
	   Memory (MB)          :      339     4000      4000 

	Job terminated of its own accord at 2022-01-18T21:55:34Z.
...
